4153222688
5941304670
7357381580
6935536314
6192146084
1423720869
7736918396
7026529703
7583082472
474845545
7713882397
3317830090
7721782876
7691755964
5567622112
372052147
6358928207
7693114537
35231977
7674309052
2165265276
7581445597
7165221312
2146412246
4303075626
5046900931
7633405663
2257382371
21552630
7388802137
4008425515
1901559585
6903031646
3647644413
7206309862
6957154949
2105064713
670226936
1574459078
199830044
5989232152
6108627734
42100647
6039321434
7496898351
5636127111
3447451407
2980888509
6861129035
1305104364
6783269018
7085538086
7584465218
7587380761
4050809386
6482349072
299290864
328898134
7215718977
7562033673
4840233102
3707900483
7537841371
389518580
1282803750
320859364
2435292073
6031231256
186924842
7337747675
7332352121
5707141497
3602749891
7398133102
199678711
2271166765
3062342545
5902154294
7322213858
5839831447
12963953
7323251508
2210635242
403892188
7517664436
7524134285
7505754410
223846513
7536361883
7538375668
4200535394
3665956346
3013991700
7328212471
1435010157
5427426904
7026333737
7470912326
194764589
5404590020
7443442681
1295707007
370952261
7457093607
6227335553
6747052518
7354212457
7493779295
3968751427
35949979
7344805861
182013953
7478916674
7298852053
401683445
481795963
7353534010
5030139819
298092355
1528957143
1506801639
1495863514
7336810411
299051201
3420825560
1082475867
7085713461
3085452130
600881865
1514572153
6376605428
5694413777
1960609051
1948291918
1020405696
24837563
551200728
7366054423
2226880071
2942024249
7120058601
1410737339
4216479978
7235722393
1417283121
4355677486
204865421
4016868689
1927685359
577724463
4394798565
5364010521
1423210491
1659086341
5376503929
259246306
5702177709
7357785094
6861670617
1458528575
495350049
7879339355
5947616389
7329876119
33098131
7780005663
5998035643
4836593495
5384287490
7771091280
7074049861
3076129935
7824494065
1903533289
7435476123
7797722190
7037236223
1577967322
4774832374
3919329565
2234641532
3237222342
7485924511
5813497393
1111347985
1389185520
1807203648
2027951783
4146441276
3968245134
5389377771
3244812382
1956109832
243187762
3318787913
1718602115
7424471569
293305888
3014498563
7456511943
1734841838
3947044762
610967672
146127411
4554812568
2110918544
4026371306
2114523243
39961231
4035554713
2765545479
226955937
7262610813
1941705089
28437557
369321395
5967809596
7675302219
7315930006
7430607929
245571119
3561023382
311158920
7658982980
6695929198
2139133712
7018655612
225963529
19297547
13907700
7319740173
1338512467
39900533
18853127
4115964660
659492234
5889302519
6041510511
6457219592
423955490
1532725794
6946109688
3177136982
2964135902
5768296070
6221088630
1275230357
2606080055
3991511456
5368437559
1651747336
1700510697
6261632483
6847694342
7260562729
920852470
295575615
2277303488
6051736216
7423942530
1363014884
5870993030
7604301063
7599229895
7570476682
6306732231
4882370187
7300734352
7598101412
7403050950
1952372030
782436275
7474432296
7176772378
694753459
583589913
7550946970
7567879167
7557675342
7568547887
1723078177
4539303335
7156332265
459519451
754376673
7457213657
3154763531
7381012528
1389223830
1309548017
534475953
7548381114
1106753874
736211340
3273076118
17737613
3412208222
3006660588
5843276530
