7384347916
6929766360
3064022681
7736392282
7698779002
7538259158
7686618480
7691924709
7521790403
1763943256
5062994406
6080557906
44577364
439567233
7577003878
1471212606
1212733824
1701220778
7659600782
7559294393
1258599288
2413226683
5478417969
654964001
1144406582
4838932638
2377031237
56007338
7634094071
3587597900
2222562039
210262716
7622645510
7393497383
4806253329
5655810821
4167628323
5798992669
1095444606
6916612524
749286310
7290387970
5175284181
6215091794
451799433
24531586
2245216235
6945794139
1453164229
320870283
7140138787
4859836746
7400437058
7583750907
1596651064
3499158504
568707741
356510581
7558704703
1200734439
7496921257
6509083633
181726251
7303979765
5880323034
6779329931
5689042663
243673512
1648332470
1287018232
6473066612
7351160955
6253305979
381068192
272796488
3166516829
787837755
348334211
3441574338
1159669535
1580138579
1734731885
7188632631
255199190
3247337097
5336978652
3186629143
7221307473
25467796
6711069195
2321284911
7536356357
5913426179
7066276529
230960697
6985919724
3180552985
5726042301
265252343
5866693915
7418546319
5760359211
7480054575
7504213646
318898755
7480047968
599264037
1970631330
9316857
2124852275
1502519022
419434193
7202678232
6850147858
4514877800
7428366659
5384857121
5027131476
1926308003
7398345038
7428288626
7436965260
7001788943
7370845196
4034425170
502733632
3299990964
298047417
7282489002
5437226019
1698566729
7343012878
3815134398
7461358275
33776664
232968866
5455000204
3283792144
379396658
7305731040
2326661112
5873459242
673291358
237827524
6232901064
7282684452
1604103172
6974662057
3719804692
286292205
5510502417
2278518924
3249251782
4170895562
7114208717
3631306140
5441430306
2909797706
4708246108
1833730143
7145297226
3265491605
5601943413
3499750138
1424762817
4271274563
7864523168
5796015873
5406755392
2028120250
6369453284
262188925
4251474012
5625814856
2310352192
7591029375
376140162
3163503660
3155356789
6950498505
7799888629
4043014894
7316693534
7799655371
1229943912
6780731208
7346334411
1974680422
409860607
2285038904
4091985564
1337983731
7739144028
7743670529
7728469103
2210838518
2320003499
7723768345
1295586516
7578284510
7156326206
5392602208
5447770022
3404636951
441117036
3426893801
5973335768
1981369596
54010684
42968953
1648076989
6738107429
53861369
2964951793
6350935169
5902494438
2828813751
377924754
4236142611
375479885
6313444484
1248055104
315242296
1450235544
600804995
2297828879
6613013155
1321693159
2994027492
3886962040
7334207379
7640023160
3100908443
1194993057
1783956690
2296488453
4474101777
3457293457
4008113574
3431569794
2321695440
12762018
310604118
46538173
7364709475
4997389346
5983685142
6562405761
7617215835
1679795778
5978836709
5575409235
4322371230
2017009218
7613255586
6786813419
6281611455
2242546575
7592836889
6824836950
5952712736
2213601586
4913612769
54353734
4345103262
5906929014
2909040696
303776349
7372486186
5611377652
2715220349
144880561
5957748390
7333708789
4011620334
7005131939
4028921132
637867187
5564440311
7576368766
5953605956
6159002306
53626851
4461734100
1688766839
7519563852
3238903689
5546241648
5822022284
7425250517
29576880
1785009942
5598535131
31891788
4870409064
1486499521
3526044306
2033064711
211564122
