499382052
510440824
7024927538
7238117256
1787771510
6519205409
611414752
2771703949
7428677655
7604986970
8498244
7494849987
7407784983
1035118360
1130111186
7695086618
3899878404
7492292109
435947638
6958296681
5776649796
7496956465
216255183
6993266791
572443961
6117479290
7160525123
5634506727
2088058484
4488247757
215357151
7633865211
7628077642
1226567038
1074676210
2147498456
7624667250
6123077012
2277422093
7559239831
3544819089
52293033
3257658680
7605846052
6333802335
6932626757
5508727682
5983127473
12097966
2346588133
4761594962
3489210619
5942681782
1557264376
7586874817
532651210
2922301218
5983853560
4098345369
4747768376
4068954727
18980104
5837899614
7371107804
7376693570
7077481043
1764727793
28993465
9017982
1691475292
6278740443
7389927296
3030831218
4786208571
7078987090
7463234240
4852832882
556337408
3295232981
10060661
7050013618
27049801
330915440
5545179794
4217175181
3094354
6356908102
175248359
7338040343
2233597588
3527390259
6480575851
7198473388
4301536961
7456588037
7271584745
6060781838
7502384738
1582491562
43480828
7485278095
1696545080
7031575253
7278093662
7493429229
2221172007
5053972005
7487211380
3525400175
26116669
4108155190
1212549204
7472554327
7473575540
1652001394
7093217040
4534394130
4550379120
4033381728
1653012541
7361175194
7464387421
264347512
4461733633
1026822219
6815706857
7375867164
4613635496
7450077133
2174161212
1628777928
3183913484
2302928572
1835032391
5958922724
2984537051
4915054442
1313388402
48689617
335890751
6902408974
5356140834
265925725
2358016362
7075784152
6239963251
1645365693
7392215651
7141124881
7400609676
2981255834
6615530837
4754264876
1509740599
271099402
7386947062
7368434115
3434768099
4830200493
4972610212
2250157821
7348025129
7370211477
5680133401
670292146
1579878676
318128506
7272089655
7880234100
7876271793
759773649
1551008082
1036723227
6552145355
2029256504
2201749038
7811743271
3460632831
6328368666
7570268965
1538416897
7569565708
6327520216
6898149831
1388678354
4556142300
7592758148
173605363
496867729
7421049297
2753780423
999840123
1975005409
251869255
582591360
2157308613
5933785746
2080654539
7396088798
7056415772
6330172544
1993243513
2026198020
7607982160
1444716947
42558407
3629929438
3836590882
1474460144
1750022149
6422485127
4562560381
7445329539
24030970
7661189469
788041017
7692165408
3057106190
3567623591
4176949132
7537826405
4786289740
6867359273
7503255760
3457230349
6935097764
7669357467
22431355
1119674425
190454583
7583980362
4522878433
7352142012
7648780566
5875264247
6932078067
5608569504
6242099001
7643409864
2505470319
1730482972
4075132256
547085738
3930866
1424180289
7558953480
1766866227
6186411281
2324726684
5703322858
7318127170
6921374946
6923964961
6830458502
7621221571
7623196433
7620727933
7620721573
6291584107
5379205429
2218328794
1626423503
9982805
3434885987
422717809
549968590
291281472
7387367062
1237819102
1635470054
7299640
4160629482
5242482
1694030879
205510592
382620092
2312339218
7587347376
7563196783
7364513390
2077729528
1535745567
3499217124
357026881
7407963940
194666981
6699921605
4624930442
1484571584
1902958969
6913722257
23061073
4989782288
272198105
5716359299
256064051
1745514841
7540101259
5630972799
6060404877
