520639652
3929948153
5820501460
7316432332
4482831024
7654044041
4916111599
1653194960
7730098145
7611628542
7715662801
6263750530
6843750422
520880755
279697395
7431798510
7263269053
5395116402
4790948859
7393571927
4973055865
277088825
23644451
3456761212
185878557
7090383095
7634748509
7643225516
6063191672
7623425334
7315415874
6506954
5972578989
2475616325
5852435836
6700943187
7205604442
1822254521
2027717825
4267499005
240940732
3633914101
5908674978
7094595757
4707113780
7583999758
253112671
6838663568
617548464
4817130191
6102148466
7599493426
7130296334
5719305129
2282761399
1566612862
5809458814
254493083
7587002024
476475269
2815461763
596966192
7217068190
208944558
7211558069
2245705402
7178797992
5870156436
7574585590
1220277847
554966724
331121817
2232986569
202747627
1349861245
3453088459
7289059388
4040645759
6717629500
7564325575
7502653711
4342528455
4450750778
5345417563
317119534
7488928239
7509087125
2294558904
293584146
5139071060
6864294465
197988628
5989834775
7370207187
7540083344
5879409580
1333983891
2160415523
6241275021
3307959002
2064142169
4525812309
21362004
434494901
7394882335
7527542084
1730883113
7410285911
6645644703
5772230960
7246808632
7518333160
7025577037
218182353
326902063
6889525928
7474945656
7385937266
2284401029
286657420
4734393994
6500923
644076053
4559845106
5934349003
1398731154
5920300337
3536779570
636445870
7383208443
7259140385
3136641403
7478755674
6925346324
302107466
4285392627
7433166081
7468812244
7470730757
1786827523
1496035718
7283876580
5526445302
5934393788
1508565025
7463890501
7376979421
7461860450
6838812074
2312456205
7438446171
5438486482
4638108835
282027139
1743598360
7438627213
12326925
7385050385
264199171
6390208616
2023039626
7426285702
17062664
4040570004
7414823114
2100085155
7410526594
1321155587
3452079971
4158217706
4339396761
7026148308
1520599175
3130077717
554628702
6116288838
2095903052
1826074480
3677849178
4239833170
7201362438
2859398205
7375543430
5355845133
7761337818
7880819196
5644043565
3541545073
7870234092
7265534109
318749018
1537222283
4152537825
2347854788
7842043527
7723097233
3998808019
7778099632
5587763828
44364726
489832798
1409263112
7152519485
7743260827
7761755557
196764783
7797370036
2981158991
290721644
6374236075
31120554
1159519294
672429805
5750325384
7603491013
11413671
5590956524
3973148295
3416740990
295349900
265782808
7728793625
3238115571
10178932
7537676014
7697714476
4685342616
7539035132
1941120611
4606241232
7041286835
7583472327
4347849733
4567213386
7697508473
7591693276
5463962956
5946486053
6980915446
7555296911
7277487104
7489618210
7677406057
35267435
1091779271
1197412044
2986337064
7300170533
4064051377
7651179788
2234686555
6981531269
7647084044
7235367557
5517239774
3290743113
308297538
4684101938
7637218887
5523638893
389202431
1563184130
17037641
3235258236
6408708915
991324226
349457232
4313811840
1460631967
6866582100
7477822010
3290306584
2141284744
3800109
7594031544
1284673843
1419231296
1189700570
7284229686
2057004561
7597465929
7512200434
7613428475
351386964
26283315
6471683109
2102517575
7522331372
2026371636
7378050629
560319414
266866517
4774251971
4580409412
351377638
5639859368
3974017192
2285240435
6113267113
