6849084056
2325030884
316848518
3564410831
1971086496
7715065719
6937423663
46528094
209125408
218263904
1734126925
26698732
6357017200
4258474588
1120915348
5907028842
1715912130
7475093678
5760980229
7605377056
334488676
3952943066
4578614200
4549140201
4213535247
7627248257
5922806626
5470272854
316666838
404636441
2871276026
6244552626
2115816205
1656778732
203672784
7277695154
7595759031
7615063138
2970483704
5370420202
1000383329
1489455993
5922790483
7518444935
6682580679
675466464
6876823658
7593032240
6857250102
2141421334
6677009320
6749171287
1983214443
1541769652
5733717330
3630462827
7581081169
189134687
6605283753
2117228233
28245101
6890981498
7541994021
7322475907
1787015863
1175261014
3666682025
1340829222
5951100065
1298137058
2937496940
6087132720
5412372231
4870133335
4703371472
9844998
6979025954
699370703
7425106767
7431279726
21896796
7471728497
263673456
7316724280
5998235015
7276267446
390493888
7341159495
7043578177
7509887164
3668401021
498616405
299549093
2983927566
7445692260
5420949911
3647147124
4217261616
2157116419
5839346365
3417537328
943788922
2129139811
23432037
5362562497
2867799612
4795635791
6837435691
7334745432
7324948668
7089361043
6647383009
376832624
3250259628
3511966974
7335450720
1795324936
7463418244
7152810068
15777
1471068464
7325073224
5543853099
6749869629
4176146074
1548119070
7419681195
5907055832
379723222
5752501923
276027356
1246018627
410213427
5645218870
2059631922
2980946115
326158420
2295281077
3749585138
4065766476
7861363515
7867709080
4934009758
1019284512
7797720096
7795534831
7520262976
7764010227
3252847792
3089730859
2136339587
2052210834
46670359
7659088423
7738154226
5517927262
7503065788
5608750085
7210866100
2037367050
960958902
6801281264
5051915665
1917430578
6822174927
5862021119
7685957015
2357971959
7416884451
6217321024
556296647
7661649633
4198957166
1117075046
30673226
721512609
6242289882
714908191
6924328872
4508463308
1337940203
3039951098
22674073
5647829335
6164591405
3071747541
22024438
587744415
5325227042
207670567
4564638086
21017097
565054679
1456464158
1612259915
597206383
7620032318
1583437080
3957115116
4639498043
429096952
1555157258
1357943341
176452698
2376400282
303971247
603965669
7535807735
7593726352
2100459565
7479800698
5523426666
7512464979
6724410482
1444997737
4315772258
6803097276
7575536073
7575411566
4718516306
7410148449
6730526969
7568391597
1454428546
4936861889
1058728342
7562141079
4092171964
3955943877
6009586392
5719574805
1608874446
7553712469
6754528350
543792684
7231613353
7538116146
2361898008
2132570299
6837880996
286638748
2295151809
5999168415
7286521998
1653221307
1424909685
55975858
3941076412
1037686583
338776506
7151223106
7544732858
7084315139
6770280116
2268489949
5939329232
1588456668
7343482228
1707564152
1814278178
647091970
7539345650
46046546
212868146
433554774
7533976182
188419820
4745948616
7311078621
7368239758
4812157971
4928008230
7530771859
7526807094
13365897
599303764
233985757
55673624
271494783
7528882175
6754798682
5829384182
7504345464
432705241
7527601091
2524577295
996197447
7295221293
7528620565
194152076
2942722151
5451831503
6963440115
6752259411
3166509016
7526116049
419902186
1424049051
