7713688687
1186795628
6348414595
4285364726
2691218746
7428677655
1684732755
7714124916
4184871671
7478492081
198988168
1573779672
1598369247
7689955690
34647736
7388240431
7191167506
7687699556
175345813
